{
  "CHANGELOG.md": "46009b223997afec8c91c74d58ef8561",
  "CODEOWNERS": "366aefdc1424442b8f864528c2e0db1d",
  "CONTRIBUTING.md": "4d17f3c942e7c93d1577cc4438a231e4",
  "Gemfile": "740da378edc1c1ff1f98c056556d543f",
  "HISTORY.md": "b5446cfadd55619dcafb1aad7a624918",
  "LICENSE": "3b83ef96387f14655fc854ddc3c6bd57",
  "NOTICE": "00d698c142148d6094704aaafdb7933d",
  "README.md": "8d7c0e24a61edf50492ab0b4d509935f",
  "REFERENCE.md": "67dad4ff9aadc4fe13d192a4e91d7e8f",
  "Rakefile": "013397feeb5293cbfc9bdcbd51a02b42",
  "appveyor.yml": "be9ede1f8e25ace60a8eae6db2da1384",
  "distelli-manifest.yml": "b57cafe40be65a086bbbd2b697221bba",
  "locales/config.yaml": "941a537d5d6912edf31c83e57063bba0",
  "locales/ja/puppetlabs-motd.po": "5f0735562c0aca3f0de0b913b0456c28",
  "locales/puppetlabs-motd.pot": "039a7b76bf6db5eadf5f0c258b235fdf",
  "manifests/init.pp": "1f15eb67a135b054816d7c1a260ef7ca",
  "metadata.json": "09edd8f1042b2b99699f43538d2fcb41",
  "provision.yaml": "fe3f796264b7a1046fbd4fafef610f0d",
  "readmes/README_ja_JP.md": "84a26adfac8d0f0693f6540e1b841db1",
  "spec/acceptance/motd_spec.rb": "4c709cfdef17df8f0a1c48f7bee7370f",
  "spec/classes/motd_spec.rb": "e93f7f7a67d4cdb1dedf90562b2a618b",
  "spec/default_facts.yml": "973bd7e9b429cde3c8d45d57c2fa21ed",
  "spec/spec_helper.rb": "ec40d36ed109d8dba0df527c34c2c6db",
  "spec/spec_helper_acceptance.rb": "7a285d6e707935349a4b37eabdb3ae2a",
  "templates/motd.epp": "6f2e261e9c70d1e68b849c983702e5fd",
  "templates/spec.epp": "cad8f5ed937a14f8ecb735d82678df56"
}